de0NanoADC/DE0NanoADC_driver_sim.vcd
$date
    Tue Nov 15 18:38:46 2016
$end
$version
    MyHDL 1.0dev
$end
$timescale
    1ns
$end

$scope module DE0NanoADC_driver_sim $end
$var reg 1 ! reset $end
$var reg 1 " push_fifo $end
$var reg 1 # flag_fifo_full $end
$var reg 1 $ clk $end
$var reg 3 % ROM_channel $end
$var reg 64 & data_packet $end
$var reg 16 ' ROM_sample_slot $end
$var reg 1 ( spi_din $end
$var reg 1 ) error $end
$var reg 1 * spi_csn $end
$var reg 1 + spi_sck $end
$var reg 1 , spi_dout $end
$scope module DE0NanoADC_driver_1 $end
$var reg 48 - tick_counter_buffer $end
$var reg 3 . slot_no $end
$var reg 16 ' ROM_sample_slot $end
$var reg 1 * spi_csn $end
$var reg 64 & data_packet $end
$var reg 1 # flag_fifo_full $end
$var reg 1 $ clk $end
$var reg 3 / ROM_channel_buffer $end
$var reg 12 0 dout_buffer $end
$var reg 1 1 db4 $end
$var reg 1 " push_fifo $end
$var real 1 2 state $end
$var reg 1 ( spi_din $end
$var reg 3 % ROM_channel $end
$var reg 48 3 tick_counter $end
$var reg 1 4 db9 $end
$var reg 1 5 db8 $end
$var reg 1 , spi_dout $end
$var reg 1 6 db1 $end
$var reg 1 7 db0 $end
$var reg 1 8 db3 $end
$var reg 1 9 db2 $end
$var reg 1 : db5 $end
$var reg 1 + spi_sck $end
$var reg 1 ; db7 $end
$var reg 1 < db6 $end
$var reg 1 ! reset $end
$var reg 1 = db11 $end
$var reg 1 > db10 $end
$var reg 1 ) error $end
$var reg 64 ? data_packet_buffer $end
$upscope $end
$scope module rom_1 $end
$var reg 16 ' sample_slot $end
$var reg 3 % channel $end
$upscope $end
$upscope $end

$enddefinitions $end
$dumpvars
1!
0"
0#
0$
b000 %
b0000000000000000000000000000000000000000000000000000000000000000 &
b0000000000000000 '
0(
0)
0*
0+
0,
b000000000000000000000000000000000000000000000000 -
b000 .
b000 /
b000000000000 0
01
sIDLE 2
b000000000000000000000000000000000000000000000000 3
04
05
06
07
08
09
0:
0;
0<
0=
0>
b0000000000000000000000000000000000000000000000000000000000000000 ?
$end
#1
#39
1$
sASSERT_CS 2
1*
1+
#78
0$
#117
1$
sSCLK_FE1 2
0*
#156
0$
#195
1$
sSCLK_L1 2
b000000000000000000000000000000000000000000000001 3
0+
b0000000000000001 '
b001 %
#234
0$
#273
1$
sSCLK_RE1 2
b000000000000000000000000000000000000000000000010 3
#312
0$
#351
1$
sSCLK_H1 2
b000000000000000000000000000000000000000000000011 3
1+
#390
0$
#429
1$
sSCLK_FE2 2
b000000000000000000000000000000000000000000000100 3
#468
0$
#507
1$
sSCLK_L2 2
b000000000000000000000000000000000000000000000101 3
0+
b001 /
#546
0$
#585
1$
sSCLK_RE2 2
b000000000000000000000000000000000000000000000110 3
#624
0$
#663
1$
sSCLK_H2 2
b000000000000000000000000000000000000000000000111 3
1+
#702
0$
#741
1$
sSCLK_FE3 2
b000000000000000000000000000000000000000000001000 3
#780
0$
#819
1$
sSCLK_L3 2
b000000000000000000000000000000000000000000001001 3
0+
#858
0$
#897
1$
sSCLK_RE3 2
b000000000000000000000000000000000000000000001010 3
#936
0$
#975
1$
sSCLK_H3 2
b000000000000000000000000000000000000000000001011 3
1+
#1014
0$
#1053
1$
sSCLK_FE4 2
b000000000000000000000000000000000000000000001100 3
#1092
0$
#1131
1$
sSCLK_L4 2
b000000000000000000000000000000000000000000001101 3
0+
b000000000000000000000000000000000000000000001100 -
#1170
0$
#1209
1$
sSCLK_RE4 2
b000000000000000000000000000000000000000000001110 3
1(
#1248
0$
#1287
1$
sSCLK_H4 2
b000000000000000000000000000000000000000000001111 3
1+
#1326
0$
#1365
1$
sSCLK_FE5 2
b000000000000000000000000000000000000000000010000 3
0(
#1404
0$
#1443
1$
sSCLK_L5 2
b000000000000000000000000000000000000000000010001 3
0+
#1482
0$
#1521
1$
sSCLK_RE5 2
b000000000000000000000000000000000000000000010010 3
#1560
0$
#1599
1$
sSCLK_H5 2
b000000000000000000000000000000000000000000010011 3
1+
#1638
0$
#1677
1$
sSCLK_FE6 2
b000000000000000000000000000000000000000000010100 3
#1716
0$
#1755
1$
sSCLK_L6 2
b000000000000000000000000000000000000000000010101 3
0+
#1794
0$
#1833
1$
sSCLK_RE6 2
b000000000000000000000000000000000000000000010110 3
#1872
0$
#1911
1$
sSCLK_H6 2
b000000000000000000000000000000000000000000010111 3
1+
#1950
0$
#1989
1$
sSCLK_FE7 2
b000000000000000000000000000000000000000000011000 3
#2028
0$
#2067
1$
sSCLK_L7 2
b000000000000000000000000000000000000000000011001 3
0+
#2106
0$
#2145
1$
sSCLK_RE7 2
b000000000000000000000000000000000000000000011010 3
#2184
0$
#2223
1$
sSCLK_H7 2
b000000000000000000000000000000000000000000011011 3
1+
#2262
0$
#2301
1$
sSCLK_FE8 2
b000000000000000000000000000000000000000000011100 3
#2340
0$
#2379
1$
sSCLK_L8 2
b000000000000000000000000000000000000000000011101 3
0+
#2418
0$
#2457
1$
sSCLK_RE8 2
b000000000000000000000000000000000000000000011110 3
#2496
0$
#2535
1$
sSCLK_H8 2
b000000000000000000000000000000000000000000011111 3
1+
#2574
0$
#2613
1$
sSCLK_FE9 2
b000000000000000000000000000000000000000000100000 3
#2652
0$
#2691
1$
sSCLK_L9 2
b000000000000000000000000000000000000000000100001 3
0+
#2730
0$
#2769
1$
sSCLK_RE9 2
b000000000000000000000000000000000000000000100010 3
#2808
0$
#2847
1$
sSCLK_H9 2
b000000000000000000000000000000000000000000100011 3
1+
#2886
0$
#2925
1$
sSCLK_FE10 2
b000000000000000000000000000000000000000000100100 3
#2964
0$
#3003
1$
sSCLK_L10 2
b000000000000000000000000000000000000000000100101 3
0+
#3042
0$
#3081
1$
sSCLK_RE10 2
b000000000000000000000000000000000000000000100110 3
#3120
0$
#3159
1$
sSCLK_H10 2
b000000000000000000000000000000000000000000100111 3
1+
#3198
0$
#3237
1$
sSCLK_FE11 2
b000000000000000000000000000000000000000000101000 3
#3276
0$
#3315
1$
sSCLK_L11 2
b000000000000000000000000000000000000000000101001 3
0+
#3354
0$
#3393
1$
sSCLK_RE11 2
b000000000000000000000000000000000000000000101010 3
#3432
0$
#3471
1$
sSCLK_H11 2
b000000000000000000000000000000000000000000101011 3
1+
#3510
0$
#3549
1$
sSCLK_FE12 2
b000000000000000000000000000000000000000000101100 3
#3588
0$
#3627
1$
sSCLK_L12 2
b000000000000000000000000000000000000000000101101 3
0+
#3666
0$
#3705
1$
sSCLK_RE12 2
b000000000000000000000000000000000000000000101110 3
#3744
0$
#3783
1$
sSCLK_H12 2
b000000000000000000000000000000000000000000101111 3
1+
#3822
0$
#3861
1$
sSCLK_FE13 2
b000000000000000000000000000000000000000000110000 3
#3900
0$
#3939
1$
sSCLK_L13 2
b000000000000000000000000000000000000000000110001 3
0+
#3978
0$
#4017
1$
sSCLK_RE13 2
b000000000000000000000000000000000000000000110010 3
#4056
0$
#4095
1$
sSCLK_H13 2
b000000000000000000000000000000000000000000110011 3
1+
#4134
0$
#4173
1$
sSCLK_FE14 2
b000000000000000000000000000000000000000000110100 3
#4212
0$
#4251
1$
sSCLK_L14 2
b000000000000000000000000000000000000000000110101 3
0+
#4290
0$
#4329
1$
sSCLK_RE14 2
b000000000000000000000000000000000000000000110110 3
#4368
0$
#4407
1$
sSCLK_H14 2
b000000000000000000000000000000000000000000110111 3
1+
#4446
0$
#4485
1$
sSCLK_FE15 2
b000000000000000000000000000000000000000000111000 3
#4524
0$
#4563
1$
sSCLK_L15 2
b000000000000000000000000000000000000000000111001 3
0+
#4602
0$
#4641
1$
sSCLK_RE15 2
b000000000000000000000000000000000000000000111010 3
#4680
0$
#4719
1$
sSCLK_H15 2
b000000000000000000000000000000000000000000111011 3
1+
#4758
0$
#4797
1$
sSCLK_FE16 2
b000000000000000000000000000000000000000000111100 3
#4836
0$
#4875
1$
sSCLK_L16 2
b000000000000000000000000000000000000000000111101 3
0+
#4914
0$
#4953
1$
sSCLK_RE16 2
b000000000000000000000000000000000000000000111110 3
#4992
0$
#5031
1$
sSCLK_H16 2
b000000000000000000000000000000000000000000111111 3
1+
#5070
0$
#5109
1$
sSCLK_FE1 2
b000000000000000000000000000000000000000001000000 3
#5148
0$
#5187
1$
sSCLK_L1 2
b000000000000000000000000000000000000000001000001 3
0+
b0000000000000010 '
b0001000000000000000000000000000000000000000000001100000000000000 ?
b010 %
#5226
0$
#5265
1$
sSCLK_RE1 2
b000000000000000000000000000000000000000001000010 3
#5304
0$
#5343
1$
sSCLK_H1 2
b000000000000000000000000000000000000000001000011 3
1+
#5382
0$
#5421
1$
sSCLK_FE2 2
b000000000000000000000000000000000000000001000100 3
#5460
0$
#5499
1$
sSCLK_L2 2
b000000000000000000000000000000000000000001000101 3
0+
b010 /
#5538
0$
#5577
1$
sSCLK_RE2 2
b000000000000000000000000000000000000000001000110 3
#5616
0$
#5655
1$
sSCLK_H2 2
b000000000000000000000000000000000000000001000111 3
1+
#5694
0$
#5733
1$
sSCLK_FE3 2
b000000000000000000000000000000000000000001001000 3
#5772
0$
#5811
1$
sSCLK_L3 2
b000000000000000000000000000000000000000001001001 3
0+
#5850
0$
#5889
1$
sSCLK_RE3 2
b000000000000000000000000000000000000000001001010 3
1(
#5928
0$
#5967
1$
sSCLK_H3 2
b000000000000000000000000000000000000000001001011 3
1+
#6006
0$
#6045
1$
sSCLK_FE4 2
b000000000000000000000000000000000000000001001100 3
0(
#6084
0$
#6123
1$
sSCLK_L4 2
b000000000000000000000000000000000000000001001101 3
0+
b000000000000000000000000000000000000000001001100 -
#6162
0$
#6201
1$
sSCLK_RE4 2
b000000000000000000000000000000000000000001001110 3
#6240
0$
#6279
1$
sSCLK_H4 2
b000000000000000000000000000000000000000001001111 3
1+
#6318
0$
#6357
1$
sSCLK_FE5 2
b000000000000000000000000000000000000000001010000 3
#6396
0$
#6435
1$
sSCLK_L5 2
b000000000000000000000000000000000000000001010001 3
0+
#6474
0$
#6513
1$
sSCLK_RE5 2
b000000000000000000000000000000000000000001010010 3
#6552
0$
#6591
1$
sSCLK_H5 2
b000000000000000000000000000000000000000001010011 3
1+
#6630
0$
#6669
1$
sSCLK_FE6 2
b000000000000000000000000000000000000000001010100 3
#6708
0$
#6747
1$
sSCLK_L6 2
b000000000000000000000000000000000000000001010101 3
0+
#6786
0$
#6825
1$
sSCLK_RE6 2
b000000000000000000000000000000000000000001010110 3
#6864
0$
#6903
1$
sSCLK_H6 2
b000000000000000000000000000000000000000001010111 3
1+
#6942
0$
#6981
1$
sSCLK_FE7 2
b000000000000000000000000000000000000000001011000 3
#7020
0$
#7059
1$
sSCLK_L7 2
b000000000000000000000000000000000000000001011001 3
0+
#7098
0$
#7137
1$
sSCLK_RE7 2
b000000000000000000000000000000000000000001011010 3
#7176
0$
#7215
1$
sSCLK_H7 2
b000000000000000000000000000000000000000001011011 3
1+
#7254
0$
#7293
1$
sSCLK_FE8 2
b000000000000000000000000000000000000000001011100 3
#7332
0$
#7371
1$
sSCLK_L8 2
b000000000000000000000000000000000000000001011101 3
0+
#7410
0$
#7449
1$
sSCLK_RE8 2
b000000000000000000000000000000000000000001011110 3
#7488
0$
#7527
1$
sSCLK_H8 2
b000000000000000000000000000000000000000001011111 3
1+
#7566
0$
#7605
1$
sSCLK_FE9 2
b000000000000000000000000000000000000000001100000 3
#7644
0$
#7683
1$
sSCLK_L9 2
b000000000000000000000000000000000000000001100001 3
0+
#7722
0$
#7761
1$
sSCLK_RE9 2
b000000000000000000000000000000000000000001100010 3
#7800
0$
#7839
1$
sSCLK_H9 2
b000000000000000000000000000000000000000001100011 3
1+
#7878
0$
#7917
1$
sSCLK_FE10 2
b000000000000000000000000000000000000000001100100 3
#7956
0$
#7995
1$
sSCLK_L10 2
b000000000000000000000000000000000000000001100101 3
0+
#8034
0$
#8073
1$
sSCLK_RE10 2
b000000000000000000000000000000000000000001100110 3
#8112
0$
#8151
1$
sSCLK_H10 2
b000000000000000000000000000000000000000001100111 3
1+
#8190
0$
#8229
1$
sSCLK_FE11 2
b000000000000000000000000000000000000000001101000 3
#8268
0$
#8307
1$
sSCLK_L11 2
b000000000000000000000000000000000000000001101001 3
0+
#8346
0$
#8385
1$
sSCLK_RE11 2
b000000000000000000000000000000000000000001101010 3
#8424
0$
#8463
1$
sSCLK_H11 2
b000000000000000000000000000000000000000001101011 3
1+
#8502
0$
#8541
1$
sSCLK_FE12 2
b000000000000000000000000000000000000000001101100 3
#8580
0$
#8619
1$
sSCLK_L12 2
b000000000000000000000000000000000000000001101101 3
0+
#8658
0$
#8697
1$
sSCLK_RE12 2
b000000000000000000000000000000000000000001101110 3
#8736
0$
#8775
1$
sSCLK_H12 2
b000000000000000000000000000000000000000001101111 3
1+
#8814
0$
#8853
1$
sSCLK_FE13 2
b000000000000000000000000000000000000000001110000 3
#8892
0$
#8931
1$
sSCLK_L13 2
b000000000000000000000000000000000000000001110001 3
0+
#8970
0$
#9009
1$
sSCLK_RE13 2
b000000000000000000000000000000000000000001110010 3
#9048
0$
#9087
1$
sSCLK_H13 2
b000000000000000000000000000000000000000001110011 3
1+
#9126
0$
#9165
1$
sSCLK_FE14 2
b000000000000000000000000000000000000000001110100 3
#9204
0$
#9243
1$
sSCLK_L14 2
b000000000000000000000000000000000000000001110101 3
0+
#9282
0$
#9321
1$
sSCLK_RE14 2
b000000000000000000000000000000000000000001110110 3
#9360
0$
#9399
1$
sSCLK_H14 2
b000000000000000000000000000000000000000001110111 3
1+
#9438
0$
#9477
1$
sSCLK_FE15 2
b000000000000000000000000000000000000000001111000 3
#9516
0$
#9555
1$
sSCLK_L15 2
b000000000000000000000000000000000000000001111001 3
0+
#9594
0$
#9633
1$
sSCLK_RE15 2
b000000000000000000000000000000000000000001111010 3
#9672
0$
#9711
1$
sSCLK_H15 2
b000000000000000000000000000000000000000001111011 3
1+
#9750
0$
#9789
1$
sSCLK_FE16 2
b000000000000000000000000000000000000000001111100 3
#9828
0$
#9867
1$
sSCLK_L16 2
b000000000000000000000000000000000000000001111101 3
0+
#9906
0$
#9945
1$
sSCLK_RE16 2
b000000000000000000000000000000000000000001111110 3
#9984
0$
#10023
1$
sSCLK_H16 2
b000000000000000000000000000000000000000001111111 3
1+
#10062
0$
#10101
1$
sSCLK_FE1 2
b000000000000000000000000000000000000000010000000 3
#10140
0$
#10179
1$
sSCLK_L1 2
b000000000000000000000000000000000000000010000001 3
0+
b0000000000000011 '
b0010000000000000000000000000000000000000000001001100000000000000 ?
b011 %
#10218
0$
#10257
1$
sSCLK_RE1 2
b000000000000000000000000000000000000000010000010 3
#10296
0$
#10335
1$
sSCLK_H1 2
b000000000000000000000000000000000000000010000011 3
1+
#10374
0$
#10413
1$
sSCLK_FE2 2
b000000000000000000000000000000000000000010000100 3
#10452
0$
#10491
1$
sSCLK_L2 2
b000000000000000000000000000000000000000010000101 3
0+
b011 /
#10530
0$
#10569
1$
sSCLK_RE2 2
b000000000000000000000000000000000000000010000110 3
#10608
0$
#10647
1$
sSCLK_H2 2
b000000000000000000000000000000000000000010000111 3
1+
#10686
0$
#10725
1$
sSCLK_FE3 2
b000000000000000000000000000000000000000010001000 3
#10764
0$
#10803
1$
sSCLK_L3 2
b000000000000000000000000000000000000000010001001 3
0+
#10842
0$
#10881
1$
sSCLK_RE3 2
b000000000000000000000000000000000000000010001010 3
1(
#10920
0$
#10959
1$
sSCLK_H3 2
b000000000000000000000000000000000000000010001011 3
1+
#10998
0$
#11037
1$
sSCLK_FE4 2
b000000000000000000000000000000000000000010001100 3
0(
#11076
0$
#11115
1$
sSCLK_L4 2
b000000000000000000000000000000000000000010001101 3
0+
b000000000000000000000000000000000000000010001100 -
#11154
0$
#11193
1$
sSCLK_RE4 2
b000000000000000000000000000000000000000010001110 3
1(
#11232
0$
#11271
1$
sSCLK_H4 2
b000000000000000000000000000000000000000010001111 3
1+
#11310
0$
#11349
1$
sSCLK_FE5 2
b000000000000000000000000000000000000000010010000 3
0(
#11388
0$
#11427
1$
sSCLK_L5 2
b000000000000000000000000000000000000000010010001 3
0+
#11466
0$
#11505
1$
sSCLK_RE5 2
b000000000000000000000000000000000000000010010010 3
#11544
0$
#11583
1$
sSCLK_H5 2
b000000000000000000000000000000000000000010010011 3
1+
#11622
0$
#11661
1$
sSCLK_FE6 2
b000000000000000000000000000000000000000010010100 3
#11700
0$
#11739
1$
sSCLK_L6 2
b000000000000000000000000000000000000000010010101 3
0+
#11778
0$
#11817
1$
sSCLK_RE6 2
b000000000000000000000000000000000000000010010110 3
#11856
0$
#11895
1$
sSCLK_H6 2
b000000000000000000000000000000000000000010010111 3
1+
#11934
0$
#11973
1$
sSCLK_FE7 2
b000000000000000000000000000000000000000010011000 3
#12012
0$
#12051
1$
sSCLK_L7 2
b000000000000000000000000000000000000000010011001 3
0+
#12090
0$
#12129
1$
sSCLK_RE7 2
b000000000000000000000000000000000000000010011010 3
#12168
0$
#12207
1$
sSCLK_H7 2
b000000000000000000000000000000000000000010011011 3
1+
#12246
0$
#12285
1$
sSCLK_FE8 2
b000000000000000000000000000000000000000010011100 3
#12324
0$
#12363
1$
sSCLK_L8 2
b000000000000000000000000000000000000000010011101 3
0+
#12402
0$
#12441
1$
sSCLK_RE8 2
b000000000000000000000000000000000000000010011110 3
#12480
0$
#12519
1$
sSCLK_H8 2
b000000000000000000000000000000000000000010011111 3
1+
#12558
0$
#12597
1$
sSCLK_FE9 2
b000000000000000000000000000000000000000010100000 3
#12636
0$
#12675
1$
sSCLK_L9 2
b000000000000000000000000000000000000000010100001 3
0+
#12714
0$
#12753
1$
sSCLK_RE9 2
b000000000000000000000000000000000000000010100010 3
#12792
0$
#12831
1$
sSCLK_H9 2
b000000000000000000000000000000000000000010100011 3
1+
#12870
0$
#12909
1$
sSCLK_FE10 2
b000000000000000000000000000000000000000010100100 3
#12948
0$
#12987
1$
sSCLK_L10 2
b000000000000000000000000000000000000000010100101 3
0+
#13026
0$
#13065
1$
sSCLK_RE10 2
b000000000000000000000000000000000000000010100110 3
#13104
0$
#13143
1$
sSCLK_H10 2
b000000000000000000000000000000000000000010100111 3
1+
#13182
0$
#13221
1$
sSCLK_FE11 2
b000000000000000000000000000000000000000010101000 3
#13260
0$
#13299
1$
sSCLK_L11 2
b000000000000000000000000000000000000000010101001 3
0+
#13338
0$
#13377
1$
sSCLK_RE11 2
b000000000000000000000000000000000000000010101010 3
#13416
0$
#13455
1$
sSCLK_H11 2
b000000000000000000000000000000000000000010101011 3
1+
#13494
0$
#13533
1$
sSCLK_FE12 2
b000000000000000000000000000000000000000010101100 3
#13572
0$
#13611
1$
sSCLK_L12 2
b000000000000000000000000000000000000000010101101 3
0+
#13650
0$
#13689
1$
sSCLK_RE12 2
b000000000000000000000000000000000000000010101110 3
#13728
0$
#13767
1$
sSCLK_H12 2
b000000000000000000000000000000000000000010101111 3
1+
#13806
0$
#13845
1$
sSCLK_FE13 2
b000000000000000000000000000000000000000010110000 3
#13884
0$
#13923
1$
sSCLK_L13 2
b000000000000000000000000000000000000000010110001 3
0+
#13962
0$
#14001
1$
sSCLK_RE13 2
b000000000000000000000000000000000000000010110010 3
#14040
0$
#14079
1$
sSCLK_H13 2
b000000000000000000000000000000000000000010110011 3
1+
#14118
0$
#14157
1$
sSCLK_FE14 2
b000000000000000000000000000000000000000010110100 3
#14196
0$
#14235
1$
sSCLK_L14 2
b000000000000000000000000000000000000000010110101 3
0+
#14274
0$
#14313
1$
sSCLK_RE14 2
b000000000000000000000000000000000000000010110110 3
#14352
0$
#14391
1$
sSCLK_H14 2
b000000000000000000000000000000000000000010110111 3
1+
#14430
0$
#14469
1$
sSCLK_FE15 2
b000000000000000000000000000000000000000010111000 3
#14508
0$
#14547
1$
sSCLK_L15 2
b000000000000000000000000000000000000000010111001 3
0+
#14586
0$
#14625
1$
sSCLK_RE15 2
b000000000000000000000000000000000000000010111010 3
#14664
0$
#14703
1$
sSCLK_H15 2
b000000000000000000000000000000000000000010111011 3
1+
#14742
0$
#14781
1$
sSCLK_FE16 2
b000000000000000000000000000000000000000010111100 3
#14820
0$
#14859
1$
sSCLK_L16 2
b000000000000000000000000000000000000000010111101 3
0+
#14898
0$
#14937
1$
sSCLK_RE16 2
b000000000000000000000000000000000000000010111110 3
#14976
0$
#15015
1$
sSCLK_H16 2
b000000000000000000000000000000000000000010111111 3
1+
#15054
0$
#15093
1$
sSCLK_FE1 2
b000000000000000000000000000000000000000011000000 3
#15132
0$
#15171
1$
sSCLK_L1 2
b000000000000000000000000000000000000000011000001 3
0+
b0000000000000100 '
b0011000000000000000000000000000000000000000010001100000000000000 ?
b100 %
#15210
0$
#15249
1$
sSCLK_RE1 2
b000000000000000000000000000000000000000011000010 3
#15288
0$
#15327
1$
sSCLK_H1 2
b000000000000000000000000000000000000000011000011 3
1+
#15366
0$
#15405
1$
sSCLK_FE2 2
b000000000000000000000000000000000000000011000100 3
#15444
0$
#15483
1$
sSCLK_L2 2
b000000000000000000000000000000000000000011000101 3
0+
b100 /
#15522
0$
#15561
1$
sSCLK_RE2 2
b000000000000000000000000000000000000000011000110 3
1(
#15600
0$
#15639
1$
sSCLK_H2 2
b000000000000000000000000000000000000000011000111 3
1+
#15678
0$
#15717
1$
sSCLK_FE3 2
b000000000000000000000000000000000000000011001000 3
0(
#15756
0$
#15795
1$
sSCLK_L3 2
b000000000000000000000000000000000000000011001001 3
0+
#15834
0$
#15873
1$
sSCLK_RE3 2
b000000000000000000000000000000000000000011001010 3
#15912
0$
#15951
1$
sSCLK_H3 2
b000000000000000000000000000000000000000011001011 3
1+
#15990
0$
#16029
1$
sSCLK_FE4 2
b000000000000000000000000000000000000000011001100 3
#16068
0$
#16107
1$
sSCLK_L4 2
b000000000000000000000000000000000000000011001101 3
0+
b000000000000000000000000000000000000000011001100 -
#16146
0$
#16185
1$
sSCLK_RE4 2
b000000000000000000000000000000000000000011001110 3
#16224
0$
#16263
1$
sSCLK_H4 2
b000000000000000000000000000000000000000011001111 3
1+
#16302
0$
#16341
1$
sSCLK_FE5 2
b000000000000000000000000000000000000000011010000 3
#16380
0$
#16419
1$
sSCLK_L5 2
b000000000000000000000000000000000000000011010001 3
0+
#16458
0$
#16497
1$
sSCLK_RE5 2
b000000000000000000000000000000000000000011010010 3
#16536
0$
#16575
1$
sSCLK_H5 2
b000000000000000000000000000000000000000011010011 3
1+
#16614
0$
#16653
1$
sSCLK_FE6 2
b000000000000000000000000000000000000000011010100 3
#16692
0$
#16731
1$
sSCLK_L6 2
b000000000000000000000000000000000000000011010101 3
0+
#16770
0$
#16809
1$
sSCLK_RE6 2
b000000000000000000000000000000000000000011010110 3
#16848
0$
#16887
1$
sSCLK_H6 2
b000000000000000000000000000000000000000011010111 3
1+
#16926
0$
#16965
1$
sSCLK_FE7 2
b000000000000000000000000000000000000000011011000 3
#17004
0$
#17043
1$
sSCLK_L7 2
b000000000000000000000000000000000000000011011001 3
0+
#17082
0$
#17121
1$
sSCLK_RE7 2
b000000000000000000000000000000000000000011011010 3
#17160
0$
#17199
1$
sSCLK_H7 2
b000000000000000000000000000000000000000011011011 3
1+
#17238
0$
#17277
1$
sSCLK_FE8 2
b000000000000000000000000000000000000000011011100 3
#17316
0$
#17355
1$
sSCLK_L8 2
b000000000000000000000000000000000000000011011101 3
0+
#17394
0$
#17433
1$
sSCLK_RE8 2
b000000000000000000000000000000000000000011011110 3
#17472
0$
#17511
1$
sSCLK_H8 2
b000000000000000000000000000000000000000011011111 3
1+
#17550
0$
#17589
1$
sSCLK_FE9 2
b000000000000000000000000000000000000000011100000 3
#17628
0$
#17667
1$
sSCLK_L9 2
b000000000000000000000000000000000000000011100001 3
0+
#17706
0$
#17745
1$
sSCLK_RE9 2
b000000000000000000000000000000000000000011100010 3
#17784
0$
#17823
1$
sSCLK_H9 2
b000000000000000000000000000000000000000011100011 3
1+
#17862
0$
#17901
1$
sSCLK_FE10 2
b000000000000000000000000000000000000000011100100 3
#17940
0$
#17979
1$
sSCLK_L10 2
b000000000000000000000000000000000000000011100101 3
0+
#18018
0$
#18057
1$
sSCLK_RE10 2
b000000000000000000000000000000000000000011100110 3
#18096
0$
#18135
1$
sSCLK_H10 2
b000000000000000000000000000000000000000011100111 3
1+
#18174
0$
#18213
1$
sSCLK_FE11 2
b000000000000000000000000000000000000000011101000 3
#18252
0$
#18291
1$
sSCLK_L11 2
b000000000000000000000000000000000000000011101001 3
0+
#18330
0$
#18369
1$
sSCLK_RE11 2
b000000000000000000000000000000000000000011101010 3
#18408
0$
#18447
1$
sSCLK_H11 2
b000000000000000000000000000000000000000011101011 3
1+
#18486
0$
#18525
1$
sSCLK_FE12 2
b000000000000000000000000000000000000000011101100 3
#18564
0$
#18603
1$
sSCLK_L12 2
b000000000000000000000000000000000000000011101101 3
0+
#18642
0$
#18681
1$
sSCLK_RE12 2
b000000000000000000000000000000000000000011101110 3
#18720
0$
#18759
1$
sSCLK_H12 2
b000000000000000000000000000000000000000011101111 3
1+
#18798
0$
#18837
1$
sSCLK_FE13 2
b000000000000000000000000000000000000000011110000 3
#18876
0$
#18915
1$
sSCLK_L13 2
b000000000000000000000000000000000000000011110001 3
0+
#18954
0$
#18993
1$
sSCLK_RE13 2
b000000000000000000000000000000000000000011110010 3
#19032
0$
#19071
1$
sSCLK_H13 2
b000000000000000000000000000000000000000011110011 3
1+
#19110
0$
#19149
1$
sSCLK_FE14 2
b000000000000000000000000000000000000000011110100 3
#19188
0$
#19227
1$
sSCLK_L14 2
b000000000000000000000000000000000000000011110101 3
0+
#19266
0$
#19305
1$
sSCLK_RE14 2
b000000000000000000000000000000000000000011110110 3
#19344
0$
#19383
1$
sSCLK_H14 2
b000000000000000000000000000000000000000011110111 3
1+
#19422
0$
#19461
1$
sSCLK_FE15 2
b000000000000000000000000000000000000000011111000 3
#19500
0$
#19539
1$
sSCLK_L15 2
b000000000000000000000000000000000000000011111001 3
0+
#19578
0$
#19617
1$
sSCLK_RE15 2
b000000000000000000000000000000000000000011111010 3
#19656
0$
#19695
1$
sSCLK_H15 2
b000000000000000000000000000000000000000011111011 3
1+
#19734
0$
#19773
1$
sSCLK_FE16 2
b000000000000000000000000000000000000000011111100 3
#19812
0$
#19851
1$
sSCLK_L16 2
b000000000000000000000000000000000000000011111101 3
0+
#19890
0$
#19929
1$
sSCLK_RE16 2
b000000000000000000000000000000000000000011111110 3
#19968
0$
#20007
1$
sSCLK_H16 2
b000000000000000000000000000000000000000011111111 3
1+
#20046
0$
#20085
1$
sSCLK_FE1 2
b000000000000000000000000000000000000000100000000 3
#20124
0$
#20163
1$
sSCLK_L1 2
b000000000000000000000000000000000000000100000001 3
0+
b0000000000000101 '
b0100000000000000000000000000000000000000000011001100000000000000 ?
b101 %
#20202
0$
#20241
1$
sSCLK_RE1 2
b000000000000000000000000000000000000000100000010 3
#20280
0$
#20319
1$
sSCLK_H1 2
b000000000000000000000000000000000000000100000011 3
1+
#20358
0$
#20397
1$
sSCLK_FE2 2
b000000000000000000000000000000000000000100000100 3
#20436
0$
#20475
1$
sSCLK_L2 2
b000000000000000000000000000000000000000100000101 3
0+
b101 /
#20514
0$
#20553
1$
sSCLK_RE2 2
b000000000000000000000000000000000000000100000110 3
1(
#20592
0$
#20631
1$
sSCLK_H2 2
b000000000000000000000000000000000000000100000111 3
1+
#20670
0$
#20709
1$
sSCLK_FE3 2
b000000000000000000000000000000000000000100001000 3
0(
#20748
0$
#20787
1$
sSCLK_L3 2
b000000000000000000000000000000000000000100001001 3
0+
#20826
0$
#20865
1$
sSCLK_RE3 2
b000000000000000000000000000000000000000100001010 3
#20904
0$
#20943
1$
sSCLK_H3 2
b000000000000000000000000000000000000000100001011 3
1+
#20982
0$
#21021
1$
sSCLK_FE4 2
b000000000000000000000000000000000000000100001100 3
#21060
0$
#21099
1$
sSCLK_L4 2
b000000000000000000000000000000000000000100001101 3
0+
b000000000000000000000000000000000000000100001100 -
#21138
0$
#21177
1$
sSCLK_RE4 2
b000000000000000000000000000000000000000100001110 3
1(
#21216
0$
#21255
1$
sSCLK_H4 2
b000000000000000000000000000000000000000100001111 3
1+
#21294
0$
#21333
1$
sSCLK_FE5 2
b000000000000000000000000000000000000000100010000 3
0(
#21372
0$
#21411
1$
sSCLK_L5 2
b000000000000000000000000000000000000000100010001 3
0+
#21450
0$
#21489
1$
sSCLK_RE5 2
b000000000000000000000000000000000000000100010010 3
#21528
0$
#21567
1$
sSCLK_H5 2
b000000000000000000000000000000000000000100010011 3
1+
#21606
0$
#21645
1$
sSCLK_FE6 2
b000000000000000000000000000000000000000100010100 3
#21684
0$
#21723
1$
sSCLK_L6 2
b000000000000000000000000000000000000000100010101 3
0+
#21762
0$
#21801
1$
sSCLK_RE6 2
b000000000000000000000000000000000000000100010110 3
#21840
0$
#21879
1$
sSCLK_H6 2
b000000000000000000000000000000000000000100010111 3
1+
#21918
0$
#21957
1$
sSCLK_FE7 2
b000000000000000000000000000000000000000100011000 3
#21996
0$
#22035
1$
sSCLK_L7 2
b000000000000000000000000000000000000000100011001 3
0+
#22074
0$
#22113
1$
sSCLK_RE7 2
b000000000000000000000000000000000000000100011010 3
#22152
0$
#22191
1$
sSCLK_H7 2
b000000000000000000000000000000000000000100011011 3
1+
#22230
0$
#22269
1$
sSCLK_FE8 2
b000000000000000000000000000000000000000100011100 3
#22308
0$
#22347
1$
sSCLK_L8 2
b000000000000000000000000000000000000000100011101 3
0+
#22386
0$
#22425
1$
sSCLK_RE8 2
b000000000000000000000000000000000000000100011110 3
#22464
0$
#22503
1$
sSCLK_H8 2
b000000000000000000000000000000000000000100011111 3
1+
#22542
0$
